What do Facebook or X users say about farming in the Netherlands?
…
fsq_words <- fsq %>% 
  unnest_tokens(output = token, input = Text) %>%  # Decide which text information in which columns you want to analyze, and input = "name of column"
  filter(!token %in% stopwords_vec) %>%  # Remove English stop words
  filter(!token %in% custom_stopwords_vec) %>%  # Remove custom stop words
  filter(!str_detect(token, "[0-9]")) %>%  # Remove numbers
  filter(nchar(token) > 3)  # Remove words of max. 3 characters

… and have a quick look at the most frequently used words. We can see frequently used words such as “people”, “food”, and “policy” “right” indicating different areas of concern present in social media posts. Note that we have 1609 rows, each representing one distinct word. This is the vocabulary we will provide as input to the word cloud.

# Count the token frequency
fsq_words %>% 
  count(token) %>% 
  arrange(desc(n))

# A tibble: 1,609 × 2
   token         n
   <chr>     <int>
 1 will         35
 2 people       32
 3 food         26
 4 dutch        25
 5 farmer       19
 6 nature       18
 7 policy       15
 8 companies    14
 9 meat         14
10 right        12
# ℹ 1,599 more rows
…
