What do the Dutch news say about farming communities?
…
words <- unnest_tokens(df, word, text_EN) |>
  filter(is.na(readr::parse_number(word))) |>  # Remove numbers
  anti_join(stop_words, by = "word") |>  # Remove English stop words
  anti_join(custom_stop_words, by = "word") |>  # Remove custom stop words
  dplyr::filter(nchar(word) >= 4)  # remove words of max. 3 characters

Now we have a quick look at the most frequently used words. We can already guess what this set of newsletter articles is about: frequently used words such as “emissions”, “water”, and “biodiversity” indicate different areas of concern present in articles. If we notice high-frequency words that do not add meaning we add them to custom_stop_words above and re-run the swcustom, tokens and tokens-rank code chunks until we only see meaningful words. The list of custom stop words is the result of such an iterative process.

words_count <- words |> 
  count(word) |> 
  arrange(desc(n))

words_count

# A tibble: 5,300 × 2
   word            n
   <chr>       <int>
 1 nitrogen      401
 2 farmers       316
 3 nature        315
 4 time          136
 5 agriculture   131
 6 water         131
 7 emissions     107
 8 government     92
 9 farmer         80
10 european       78
# ℹ 5,290 more rows
…
